{
  "htmlFilePath": {
    "entry": "index",
    "extention": "html"
  },
  "files": {
    "src": "../src",
    "dist": "../dist"
  },
  "alias": {
    "config": "../config/",
    "assets": "../src/assets/",
    "locales": "../src/locales/",
    "settings": "../src/settings/",
    "helpers": "../src/helpers/",
    "core": "../src/modules/core/"
  }
}
