{
  "modes": {
    "dev": "development",
    "prod": "production"
  },
  "server": {
    "front": "http",
    "url": "localhost",
    "port": 9000
  },
  "devServer": {
    "hot": true,
    "compress": true
  }
}
